{
  "EDITOR_STATE": {
    "allProjectFiles": {
      "8231f373-c0bb-4883-9b72-9433b40b89a9": {
        "id": "8231f373-c0bb-4883-9b72-9433b40b89a9",
        "parent": null,
        "name": "kgcppyjully15update.py",
        "type": "PYTHON_LAMBDA",
        "isDirectory": false,
        "children": [],
        "isRemovable": true,
        "filePath": "kgcppyjully15update.py",
        "cursor": {
          "lineNumber": 19,
          "column": 1
        },
        "config": {
          "runtime": "python37",
          "timeout": 60,
          "memory": 128,
          "triggerType": 0,
          "name": "kgcppyjully15update",
          "handler": "handler"
        },
        "triggers": [
          {
            "resourceName": "http-trigger",
            "config": {}
          }
        ]
      },
      "f8d6f1a7-ea76-44b1-91e3-1c293e1eeb81": {
        "id": "f8d6f1a7-ea76-44b1-91e3-1c293e1eeb81",
        "parent": null,
        "name": "index.js",
        "type": "JS_FILE",
        "isDirectory": false,
        "children": [],
        "isRemovable": false,
        "filePath": "index.js"
      },
      "36e25cfe-dd1f-4656-b7b8-3216d1ddc2be": {
        "id": "36e25cfe-dd1f-4656-b7b8-3216d1ddc2be",
        "parent": null,
        "name": "main.py",
        "type": "PYTHON_FILE",
        "isDirectory": false,
        "children": [],
        "isRemovable": false,
        "filePath": "main.py"
      },
      "70971af5-20fb-41fe-8b4d-d758d72746bc": {
        "id": "70971af5-20fb-41fe-8b4d-d758d72746bc",
        "parent": null,
        "name": "k.js",
        "type": "JS_LAMBDA",
        "isDirectory": false,
        "children": [],
        "isRemovable": true,
        "filePath": "k.js",
        "cursor": {
          "lineNumber": 1,
          "column": 1
        },
        "config": {
          "runtime": "nodejs8",
          "timeout": 60,
          "memory": 128,
          "triggerType": 0,
          "name": "k",
          "handler": "handler"
        },
        "triggers": [
          {
            "resourceName": "http-trigger",
            "config": {}
          }
        ]
      }
    },
    "openFiles": [
      "8231f373-c0bb-4883-9b72-9433b40b89a9",
      "70971af5-20fb-41fe-8b4d-d758d72746bc"
    ],
    "currentFileId": "8231f373-c0bb-4883-9b72-9433b40b89a9",
    "resources": {
      "http-trigger": {
        "name": "http-trigger",
        "type": "http-trigger",
        "config": {}
      },
      "sqshiruTest": {
        "name": "sqshiruTest",
        "type": "SQS",
        "config": {
          "mode": 1,
          "existing": true,
          "name": "hiru-test",
          "url": "https://sqs.us-east-1.amazonaws.com/318300609668/hiru-test",
          "selectedRegion": "us-east-1",
          "deliveryDelay": "0",
          "deliveryDelayUnit": "seconds",
          "queueType": "standardQueue",
          "defaultVisibilityTimeout": "30",
          "defaultVisibilityTimeoutUnit": "seconds",
          "messageRetentionPeriod": "345600",
          "messageRetentionPeriodUnit": "seconds",
          "maximumMessageSize": 256,
          "receiveMessageWaitTime": "0",
          "queueARN": "arn:aws:sqs:us-east-1:318300609668:hiru-test"
        }
      },
      "kinesisknew123": {
        "name": "kinesisknew123",
        "type": "Kinesis",
        "config": {
          "mode": 1,
          "StreamName": "knew123",
          "shards": 1,
          "region": "us-east-1",
          "operation": "describeStream"
        }
      }
    },
    "customTemplate": {
      "syntax": "JSON",
      "overrideDefault": false,
      "dialect": null,
      "definitions": null
    },
    "envVariables": [
      {
        "lambdaId": "all",
        "varKey": "AWS_DEFAULT_REGION",
        "varValue": null,
        "shouldPersist": false,
        "displayOnly": false,
        "editable": false
      },
      {
        "lambdaId": "all",
        "varKey": "AWS_ACCESS_KEY_ID",
        "varValue": null,
        "shouldPersist": false,
        "displayOnly": false,
        "editable": false
      },
      {
        "lambdaId": "all",
        "varKey": "AWS_SECRET_ACCESS_KEY",
        "varValue": null,
        "shouldPersist": false,
        "displayOnly": false,
        "editable": false
      },
      {
        "lambdaId": "all",
        "varKey": "SIGMA_AWS_ACC_ID",
        "varValue": null,
        "shouldPersist": false,
        "displayOnly": false,
        "editable": false
      },
      {
        "lambdaId": "all",
        "varKey": "k1",
        "varValue": null,
        "shouldPersist": false,
        "displayOnly": false,
        "editable": true
      }
    ],
    "packageJSON": {
      "dependencies": {
        "boto3": {
          "name": "boto3",
          "language": "python",
          "version": "1.12.27",
          "dev": false,
          "notRemovable": false
        },
        "aws-sdk": {
          "name": "aws-sdk",
          "language": "nodejs",
          "version": "2.644.0",
          "dev": false,
          "notRemovable": false
        }
      }
    }
  },
  "PROJECT_META": {
    "sigmaVersion": "1.4.1",
    "projectName": "kgcppyjully15",
    "projectDescription": "",
    "projectVersion": "1.0.0",
    "projectRegion": "us-east1",
    "platform": "GCP",
    "language": "python",
    "platformRegions": {
      "AWS": "us-east-1"
    },
    "lastSave": 1594805104930
  },
  "VCS_STATE": {
    "provider": "BitBucket",
    "repo": {
      "name": "kgcppyjully15",
      "url": "https://bitbucket.org/KumudikaR/kgcppyjully15"
    }
  }
}